{
    "name": "金園美食店",
    "address": "202基隆市中正區祥豐街839號",
    "phone": "02 2462 1286", 
    "root": {
        "鐵板飯": {
            "泡菜豬肉": 75,
            "泡菜雞肉": 75,
            "泡菜羊肉": 85,
            "泡菜牛肉": 85,
            "三杯去骨雞腿": 85,
            "羊肉": 85,
            "牛柳": 85,
            "宮保雞丁": 85,
            "培根牛肉": 75,
            "糖醋雞柳": 75,
            "雞柳": 75,
            "雞肉": 70,
            "豬肉": 70,
            "去骨雞腿": 80
        },
        "鐵板麵": {
            "宮保雞丁": 75,
            "去骨雞腿": 75,
            "培根牛肉": 70,
            "豬肉": 65,
            "雞肉": 65,
            "豬排": 65,
            "魚排": 60,
            "卡啦雞腿": 55,
            "雞排": 55,
            "鐵板麵": 50
        },
        "快餐": {
            "咖哩飯": 50,
            "咖哩雞排飯": 50,
            "咖哩豬排飯": 60,
            "咖哩雞肉飯": 60,
            "咖哩豬肉飯": 60,
            "卡啦雞腿飯": 55,
            "無骨雞排飯": 55,
            "魚排飯": 60,
            "醉雞飯": 60,
            "去骨油雞腿飯": 70,
            "無骨鹽酥雞飯": 70,
            "控肉飯": 70,
            "鳳梨蝦球飯": 70,
            "糖醋魚片飯": 70,
            "去骨雞排飯": 70,
            "排骨飯": 70,
            "炸雞腿飯": 75,
            "滷雞腿飯": 70,
            "香煎豬肉飯": 65,
            "香煎雞肉飯": 65,
            "香煎培根牛肉飯": 75,
            "香煎去骨雞腿飯": 75,
            "蜜汁雞丁飯": 80,
            "紅麴燒肉飯": 75
        },
        "炒飯": {
            "去骨雞排炒飯": 75,
            "豬排炒飯": 75,
            "泡菜肉絲炒飯": 70,
            "蝦仁炒飯": 70,
            "羊肉炒飯": 70,
            "牛肉炒飯": 70,
            "魚排炒飯": 60,
            "肉絲炒飯": 60,
            "香腸炒飯": 60,
            "咖哩炒飯": 60,
            "培根炒飯": 60
        },
        "飲料": {
            "可樂": 15,
            "雪碧": 15,
            "橘子芬達": 15,
            "美粒果柳橙": 15
        },
        "單點": {
            "蜜汁雞丁": 50,
            "去骨雞腿": 45,
            "糖醋魚片": 45,
            "紅麴燒肉": 45,
            "去骨雞排": 40,
            "炸排骨": 40,
            "鳳梨蝦球": 45,
            "香煎雞肉": 40,
            "香煎豬肉": 40,
            "爌肉": 40,
            "培根牛肉": 45,
            "炸/滷雞腿": 45,
            "無骨鹹酥雞": 45,
            "無骨油雞": 40,
            "醉雞": 35,
            "魚排": 35,
            "卡啦雞腿": 30,
            "無骨雞排": 30,
            "炒青菜": 30,
            "內用湯": 25
        }
    }
}