{
    "name": "早安美芝城",
    "address": "202基隆市中正區祥豐街847號",
    "phone": "02 2462 0845", 
    "root": {
        "漢堡": {
            "起士蛋堡": 30,
            "招牌豬肉堡": 30,
            "火腿起士堡": 30,
            "蔬菜起士堡": 30,
            "肉鬆堡": 30,
            "薯泥堡": 30,
            "鮪魚堡": 35,
            "香雞堡": 35,
            "燻雞堡": 35,
            "薯餅堡": 35,
            "培根起司堡": 35,
            "蔥爆豬柳堡": 35,
            "黃金蝦餅堡": 40,
            "里肌豬排堡": 40,
            "德式香腸堡": 40,
            "紐澳良雞肉堡": 40,
            "三杯雞肉堡": 40,
            "檸檬豬柳堡": 40,
            "炸豬排堡": 45,
            "藍帶起士豬堡": 45,
            "起士總匯堡": 50,
            "香酥真鱈魚排堡": 55,
            "卡啦雞腿堡": {
                "辣味": 55,
                "原味": 55
            },
            "雙層牛肉起士堡": 60,
            "培根牛肉起士堡": 60,
            "4盎司牛肉起士堡": 70
        },
        "厚片": {
            "香蒜法國麵包": 25,
            "果醬": {
                "草莓": 20,
                "藍莓": 20,
                "花生": 20,
                "巧克力": 20,
                "奶酥": 20,
                "奶油": 20,
                "香蒜": 20
            },
            "鮪魚起士": {
                "茄汁": 35,
                "哇沙米": 35
            },
            "薯泥起士": {
                "茄汁": 35,
                "哇沙米": 35
            }
        },
        "佛卡夏": {
            "果醬": {
                "草莓": 25,
                "藍莓": 25,
                "花生": 25,
                "巧克力": 25,
                "奶酥": 25,
                "奶油": 25,
                "香蒜": 25
            },
            "薯泥": 35,
            "蔬菜起士": 35,
            "培根": 35,
            "火腿": 35,
            "招牌肉": 35,
            "豬排": 40
        },
        "吐司": {
            "果醬": {
                "草莓": 15,
                "藍莓": 15,
                "花生": 15,
                "巧克力": 15,
                "奶酥": 15,
                "奶油": 15,
                "香蒜": 15
            },
            "薯泥": 25,
            "蔬菜": 25,
            "火腿蛋": 25,
            "起司蛋": 25,
            "肉鬆蛋": 30,
            "培根蛋": 30,
            "薯餅蛋": 30,
            "夾肉": 30,
            "奶香法式": {
                "草莓": 30,
                "藍莓": 30,
                "花生": 30,
                "巧克力": 30,
                "奶酥": 30,
                "火腿": 35,
                "培根": 35,
                "肉鬆": 35
            },
            "鮪魚": 35,
            "香雞": 35,
            "燻雞": 35,
            "蔥爆豬柳": 35,
            "黃金蝦餅": 40,
            "里肌豬排": 40,
            "紐澳良肌肉": 40,
            "檸檬雞柳": 40,
            "三杯雞肉": 40,
            "炸豬排": 45,
            "藍帶起士豬": 45,
            "總匯": 50,
            "香酥真鱈魚排": 55,
            "卡啦雞腿": {
                "辣味": 55,
                "原味": 55
            },
            "黑胡椒豬排總匯": 55,
            "雙層牛肉起士": 60,
            "4盎司牛肉起士": 70
        },
        "麵": {
            "鐵板麵": {
                "黑胡椒": 35,
                "蘑菇": 35
            },
            "鐵板烏龍麵": {
                "奶油白醬": 50,
                "沙茶豬": 50,
                "宮保雞丁": 50,
                "麻婆豆腐": 50,
                "義大利": 50,
                "三杯": 55
            },
            "鍋燒意麵": 55,
            "雞絲麵": 55,
            "鍋燒烏龍麵": 55,
            "炒泡麵(小)": 45,
            "炒泡麵(大)": 60,
            "炒泡麵(特大)": 80
        },
        "貝果": {
            "果醬": 35,
            "薯泥": 45,
            "蔬菜起士": 45,
            "培根": 45,
            "火腿": 45,
            "燻雞": 50,
            "鮪魚": 50
        },
        "丹麥吐司": {
            "起士": {
                "小": 30,
                "大": 55
            },
            "培根": {
                "小": 30,
                "大": 55
            },
            "薯泥": {
                "小": 30,
                "大": 55
            },
            "火腿": {
                "小": 30,
                "大": 55
            },
            "鮪魚": {
                "小": 35,
                "大": 60
            },
            "燻雞": {
                "小": 35,
                "大": 60
            },
            "豬排": {
                "小": 40,
                "大": 65
            }
        },
        "軟法/可頌/鬆餅/燒餅": {
            "原味": {
                "軟法": 25,
                "可頌": 25,
                "鬆餅": 25,
                "燒餅": 25
            },
            "果醬": {
                "草莓": {
                    "軟法": 35,
                    "可頌": 35,
                    "鬆餅": 35,
                    "燒餅": 35
                },
                "藍莓": {
                    "軟法": 35,
                    "可頌": 35,
                    "鬆餅": 35,
                    "燒餅": 35
                },
                "花生": {
                    "軟法": 35,
                    "可頌": 35,
                    "鬆餅": 35,
                    "燒餅": 35
                },
                "巧克力": {
                    "軟法": 35,
                    "可頌": 35,
                    "鬆餅": 35,
                    "燒餅": 35
                },
                "奶酥": {
                    "軟法": 35,
                    "可頌": 35,
                    "鬆餅": 35,
                    "燒餅": 35
                }
            },
            "培根起士/火腿起士": {
                "軟法": 45,
                "可頌": 45,
                "鬆餅": 45,
                "燒餅": 45
            },
            "薯泥/蔬菜起士": {
                "軟法": 45,
                "可頌": 45,
                "鬆餅": 45,
                "燒餅": 45
            },
            "鮪魚": {
                "軟法": 50,
                "可頌": 50,
                "鬆餅": 50,
                "燒餅": 50
            },
            "燻雞": {
                "軟法": 50,
                "可頌": 50,
                "鬆餅": 50,
                "燒餅": 50
            },
            "三杯": {
                "軟法": 50,
                "可頌": 50,
                "鬆餅": 50,
                "燒餅": 50
            },
            "豬排/豬柳": {
                "軟法": 50,
                "可頌": 50,
                "鬆餅": 50,
                "燒餅": 50
            }
        },
        "蛋餅/雙層蛋餅/河粉": {
            "原味": {
                "蛋餅": 20,
                "雙層蛋餅": 25,
                "河粉": 30
            },
            "九層塔蛋": {
                "蛋餅": 25,
                "雙層蛋餅": 30,
                "河粉": 35
            },
            "日式和風": {
                "蛋餅": 25,
                "雙層蛋餅": 30,
                "河粉": 35
            },
            "火腿": {
                "蛋餅": 25,
                "雙層蛋餅": 30,
                "河粉": 35
            },
            "蔬菜": {
                "蛋餅": 25,
                "雙層蛋餅": 30,
                "河粉": 35
            },
            "玉米": {
                "蛋餅": 25,
                "雙層蛋餅": 30,
                "河粉": 35
            },
            "肉鬆": {
                "蛋餅": 30,
                "雙層蛋餅": 35,
                "河粉": 40
            },
            "培根": {
                "蛋餅": 30,
                "雙層蛋餅": 35,
                "河粉": 40
            },
            "起士": {
                "蛋餅": 30,
                "雙層蛋餅": 35,
                "河粉": 40
            },
            "招牌肉": {
                "蛋餅": 30,
                "雙層蛋餅": 35,
                "河粉": 40
            },
            "薯泥": {
                "蛋餅": 30,
                "雙層蛋餅": 35,
                "河粉": 40
            },
            "薯餅": {
                "蛋餅": 30,
                "雙層蛋餅": 35,
                "河粉": 40
            },
            "芝心": {
                "蛋餅": 30,
                "雙層蛋餅": 35,
                "河粉": 40
            },
            "豬柳": {
                "蛋餅": 35,
                "雙層蛋餅": 40,
                "河粉": 45
            },
            "燻雞": {
                "蛋餅": 35,
                "雙層蛋餅": 40,
                "河粉": 45
            },
            "香雞": {
                "蛋餅": 35,
                "雙層蛋餅": 40,
                "河粉": 45
            },
            "三杯": {
                "蛋餅": 35,
                "雙層蛋餅": 40,
                "河粉": 45
            },
            "豬排": {
                "蛋餅": 35,
                "雙層蛋餅": 40,
                "河粉": 45
            },
            "鮪魚": {
                "蛋餅": 35,
                "雙層蛋餅": 40,
                "河粉": 45
            },
            "蝦餅": {
                "蛋餅": 35,
                "雙層蛋餅": 40,
                "河粉": 45
            },
            "德腸": {
                "蛋餅": 35,
                "雙層蛋餅": 40,
                "河粉": 45
            },
            "卡啦雞腿": {
                "蛋餅": 45,
                "雙層蛋餅": 50,
                "河粉": 55
            }
        },
        "飲料": {
            "紅茶": {
                "中": 15,
                "大": 20
            },
            "綠茶": {
                "中": 15,
                "大": 20
            },
            "豆漿": {
                "中": 15,
                "大": 20
            },
            "玄米煎茶": {
                "中": 15,
                "大": 20
            },
            "皇家奶茶": {
                "中": 15,
                "大": 20
            },
            "新纖十穀奶": {
                "中": 20,
                "大": 25
            },
            "拿鐵咖啡": {
                "中": 20,
                "大": 25
            },
            "柳橙汁": {
                "中": 20,
                "大": 25
            },
            "綠豆沙(夏季限定)": {
                "中": 20,
                "大": 25
            },
            "巧克力牛奶": {
                "中": 20,
                "大": 25
            },
            "玉米濃湯(冬季限定)": {
                "中": 30,
                "大": 40
            }
        },
        "點心": {
            "荷包蛋": 10,
            "荷包蛋(2)": 15,
            "小熱狗(5)": 25,
            "洋蔥蛋": 15,
            "玉米蛋": 15,
            "起士蛋": 15,
            "薯餅": 15,
            "九層塔蛋": 15,
            "蝦餅": 20,
            "德式香腸": 20,
            "薯條": 25,
            "蘿蔔糕": 25,
            "麥克雞塊": 25,
            "小巧雞塊": 25,
            "鍋貼": 25,
            "煎餃": 25,
            "營養早餐": 25,
            "炸水餃": 30,
            "蔥抓餅加蛋": 30,
            "蔥抓餅加蛋加起士": 35,
            "蔥抓餅加蛋加九層塔": 35,
            "日式和風煎餃": 35,
            "薯泥沙啦": 35,
            "蔬菜沙拉": 35,
            "玉米布丁酥": 35,
            "薯餅塔": 40,
            "雙層卡拉塔": {
                "辣味": 80,
                "原味": 80
            }
        }
    }
}