{
    "name": "海大燒臘店",
    "address": "202基隆市中正區中正路790號號",
    "phone": "02 2463 3616", 
    "root": {
        "燒鴨脆皮飯": 80,
        "油雞玫瑰飯": 80,
        "叉燒蜜汁飯": 80,
        "香腸港式飯": 80,
        "燒鴨拼油雞飯": 85,
        "燒鴨拼叉燒飯": 85,
        "燒鴨拼香腸飯": 85,
        "油雞拼叉燒飯": 85,
        "油雞拼香腸飯": 85,
        "叉燒拼香腸飯": 85,
        "化皮燒肉拼燒鴨飯": 90,
        "化皮燒肉拼油雞飯": 90,
        "化皮燒肉拼叉燒飯": 90,
        "化皮燒肉拼香腸飯": 90,
        "蜜汁雞腿飯": 90,
        "炸雞腿飯": 90,
        "炸雞排飯": 90,
        "油雞腿飯": 90,
        "正宗美味三寶飯": 90,
        "特製化皮燒肉飯": 95,
        "脆皮鴨腿飯": 95,
        "精緻招牌飯": 95,
        "化皮燒肉三拼飯": 95,
        "化皮燒肉四拼飯": 100
    }
}