{
    "name": "吮指王",
    "address": "基隆市中正區",
    "phone": "02 2463 3825", 
    "root": {
        "特大雞排": {
            "胡椒": {
                "切": 55,
                "不切": 55
            },
            "干梅": {
                "切": 55,
                "不切": 55
            },
            "咖哩": {
                "切": 55,
                "不切": 55
            },
            "辣味": {
                "切": 55,
                "不切": 55
            },
            "海苔": {
                "切": 55,
                "不切": 55
            },
            "哇沙米": {
                "切": 55,
                "不切": 55
            }
        },
        "脆皮大雞排": {
            "胡椒": {
                "切": 60,
                "不切": 60
            },
            "干梅": {
                "切": 60,
                "不切": 60
            },
            "咖哩": {
                "切": 60,
                "不切": 60
            },
            "辣味": {
                "切": 60,
                "不切": 60
            },
            "海苔": {
                "切": 60,
                "不切": 60
            },
            "哇沙米": {
                "切": 60,
                "不切": 60
            }
        },
        "脆皮檸檬雞排": {
            "胡椒": {
                "切": 60,
                "不切": 60
            },
            "干梅": {
                "切": 60,
                "不切": 60
            },
            "咖哩": {
                "切": 60,
                "不切": 60
            },
            "辣味": {
                "切": 60,
                "不切": 60
            },
            "海苔": {
                "切": 60,
                "不切": 60
            },
            "哇沙米": {
                "切": 60,
                "不切": 60
            }
        },
        "檸檬雞排": {
            "大辣": {
                "切": 60,
                "不切": 60
            },
            "中辣": {
                "切": 60,
                "不切": 60
            },
            "小辣": {
                "切": 60,
                "不切": 60
            }
        },
        "泰式雞排": {
            "大辣": {
                "切": 60,
                "不切": 60
            },
            "中辣": {
                "切": 60,
                "不切": 60
            },
            "小辣": {
                "切": 60,
                "不切": 60
            }
        },
        "蜜汁叉燒雞排": {
            "大辣": {
                "切": 60,
                "不切": 60
            },
            "中辣": {
                "切": 60,
                "不切": 60
            },
            "小辣": {
                "切": 60,
                "不切": 60
            }
        },
        "桔醬碳烤雞排": {
            "大辣": {
                "切": 60,
                "不切": 60
            },
            "中辣": {
                "切": 60,
                "不切": 60
            },
            "小辣": {
                "切": 60,
                "不切": 60
            }
        },
        "雞米花": {
            "大": 50,
            "小": 30
        },
        "無骨鹹酥雞": {
            "大": 50,
            "小": 30
        },
        "泰式魷魚": {
            "大": 50,
            "小": 30
        },
        "干梅地瓜": {
            "大": 50,
            "小": 30
        },
        "杏鮑菇/香菇": {
            "大": 50,
            "小": 30
        },
        "馬鈴薯薯條": {
            "胡椒": 25,
            "干梅": 25,
            "咖哩": 25,
            "辣味": 25,
            "海苔": 25,
            "哇沙米": 25
        },
        "雞塊": 40,
        "雞腿": 40,
        "雞翅": 25,
        "柳葉魚": 40,
        "茄子/玉米筍": 40,
        "雞腿捲": 40,
        "月亮蝦餅": 40,
        "雞蛋豆腐": 40,
        "蔥餅": 40,
        "炸餛飩": 35,
        "起司芋泥球": 35,
        "青椒/花椰菜": 30,
        "四季豆/糯米椒": 30,
        "百頁豆腐": 30,
        "洋蔥圈": 30,
        "碳烤豆皮": 25,
        "雞屁股": 25,
        "雞皮": 25,
        "雞心": 25,
        "雞脖子(2)": 25,
        "脆皮麻糬": 25,
        "米腸": 25,
        "花枝丸": 25,
        "甜不辣": 25,
        "脆皮米寫": 25,
        "地瓜球": 25,
        "炸湯圓": 25,
        "麥克雞塊": 25,
        "芋粿條": 25,
        "魚板": 20,
        "鑫鑫腸": 20,
        "銀絲卷": 20,
        "脆皮蘿蔔糕": 20,
        "脆皮豆干": 15
    }
}